%YAML 1.1
%TAG !u! tag:unity3d.com,2011:
--- !u!114 &-6975661418634259875
MonoBehaviour:
  m_ObjectHideFlags: 3
  m_CorrespondingSourceObject: {fileID: 0}
  m_PrefabInstance: {fileID: 0}
  m_PrefabAsset: {fileID: 0}
  m_GameObject: {fileID: 0}
  m_Enabled: 1
  m_EditorHideFlags: 0
  m_Script: {fileID: 11500000, guid: 59b6606ef2548734bb6d11b9d160bc7e, type: 3}
  m_Name: HDRISky
  m_EditorClassIdentifier: 
  active: 1
  m_AdvancedMode: 0
  rotation:
    m_OverrideState: 1
    m_Value: 0
    min: 0
    max: 360
  skyIntensityMode:
    m_OverrideState: 1
    m_Value: 0
  exposure:
    m_OverrideState: 1
    m_Value: 1
  multiplier:
    m_OverrideState: 1
    m_Value: 65
    min: 0
  upperHemisphereLuxValue:
    m_OverrideState: 0
    m_Value: 1.2556127
    min: 0
  upperHemisphereLuxColor:
    m_OverrideState: 0
    m_Value: {x: 0.14668143, y: 0.42004868, z: 0.5}
  desiredLuxValue:
    m_OverrideState: 0
    m_Value: 0
  updateMode:
    m_OverrideState: 0
    m_Value: 2
  updatePeriod:
    m_OverrideState: 0
    m_Value: 0
    min: 0
  includeSunInBaking:
    m_OverrideState: 0
    m_Value: 0
  hdriSky:
    m_OverrideState: 1
    m_Value: {fileID: 8900000, guid: a5fa78cf186e8cc4cae2d3f12780cd85, type: 3}
  enableBackplate:
    m_OverrideState: 0
    m_Value: 0
  backplateType:
    m_OverrideState: 0
    m_Value: 0
  groundLevel:
    m_OverrideState: 0
    m_Value: 0
  scale:
    m_OverrideState: 0
    m_Value: {x: 32, y: 32}
  projectionDistance:
    m_OverrideState: 0
    m_Value: 16
    min: 0.0000001
  plateRotation:
    m_OverrideState: 0
    m_Value: 0
    min: 0
    max: 360
  plateTexRotation:
    m_OverrideState: 0
    m_Value: 0
    min: 0
    max: 360
  plateTexOffset:
    m_OverrideState: 0
    m_Value: {x: 0, y: 0}
  blendAmount:
    m_OverrideState: 0
    m_Value: 0
    min: 0
    max: 100
  shadowTint:
    m_OverrideState: 0
    m_Value: {r: 0.5, g: 0.5, b: 0.5, a: 1}
    hdr: 0
    showAlpha: 1
    showEyeDropper: 1
  pointLightShadow:
    m_OverrideState: 0
    m_Value: 0
  dirLightShadow:
    m_OverrideState: 0
    m_Value: 0
  rectLightShadow:
    m_OverrideState: 0
    m_Value: 0
--- !u!114 &-6371946650529433251
MonoBehaviour:
  m_ObjectHideFlags: 3
  m_CorrespondingSourceObject: {fileID: 0}
  m_PrefabInstance: {fileID: 0}
  m_PrefabAsset: {fileID: 0}
  m_GameObject: {fileID: 0}
  m_Enabled: 1
  m_EditorHideFlags: 0
  m_Script: {fileID: 11500000, guid: 56b145d2b9ee1ac4f846968484e7485a, type: 3}
  m_Name: ContactShadows
  m_EditorClassIdentifier: 
  active: 1
  m_AdvancedMode: 0
  quality:
    m_OverrideState: 0
    m_Value: 0
  enable:
    m_OverrideState: 1
    m_Value: 0
  length:
    m_OverrideState: 0
    m_Value: 0.151
    min: 0
    max: 1
  opacity:
    m_OverrideState: 0
    m_Value: 0.959
    min: 0
    max: 1
  distanceScaleFactor:
    m_OverrideState: 0
    m_Value: 0.063
    min: 0
    max: 1
  maxDistance:
    m_OverrideState: 0
    m_Value: 50
    min: 0
  fadeDistance:
    m_OverrideState: 0
    m_Value: 15
    min: 0
  m_SampleCount:
    m_OverrideState: 1
    m_Value: 10
    min: 4
    max: 64
--- !u!114 &11400000
MonoBehaviour:
  m_ObjectHideFlags: 0
  m_CorrespondingSourceObject: {fileID: 0}
  m_PrefabInstance: {fileID: 0}
  m_PrefabAsset: {fileID: 0}
  m_GameObject: {fileID: 0}
  m_Enabled: 1
  m_EditorHideFlags: 0
  m_Script: {fileID: 11500000, guid: d7fd9488000d3734a9e00ee676215985, type: 3}
  m_Name: GameObject Profile
  m_EditorClassIdentifier: 
  components:
  - {fileID: -6975661418634259875}
  - {fileID: 3697609636440331383}
  - {fileID: 9115206795195369271}
  - {fileID: 8249014946329950988}
  - {fileID: 5577995187079869946}
  - {fileID: -6371946650529433251}
  - {fileID: 2720704536693949561}
  - {fileID: 1709840741865674217}
  - {fileID: 1765282802405156314}
  - {fileID: 2946094280506618409}
--- !u!114 &1709840741865674217
MonoBehaviour:
  m_ObjectHideFlags: 3
  m_CorrespondingSourceObject: {fileID: 0}
  m_PrefabInstance: {fileID: 0}
  m_PrefabAsset: {fileID: 0}
  m_GameObject: {fileID: 0}
  m_Enabled: 1
  m_EditorHideFlags: 0
  m_Script: {fileID: 11500000, guid: 953beb541740ddc499d005ee80c9ff29, type: 3}
  m_Name: Fog
  m_EditorClassIdentifier: 
  active: 1
  m_AdvancedMode: 0
  enabled:
    m_OverrideState: 1
    m_Value: 1
  colorMode:
    m_OverrideState: 1
    m_Value: 1
  color:
    m_OverrideState: 1
    m_Value: {r: 0.5, g: 0.5, b: 0.5, a: 1}
    hdr: 1
    showAlpha: 0
    showEyeDropper: 1
  tint:
    m_OverrideState: 1
    m_Value: {r: 0.5421413, g: 0.7487512, b: 0.8773585, a: 1}
    hdr: 1
    showAlpha: 0
    showEyeDropper: 1
  maxFogDistance:
    m_OverrideState: 1
    m_Value: 5000
    min: 0
  mipFogMaxMip:
    m_OverrideState: 1
    m_Value: 0.5
    min: 0
    max: 1
  mipFogNear:
    m_OverrideState: 1
    m_Value: 0
    min: 0
  mipFogFar:
    m_OverrideState: 1
    m_Value: 1000
    min: 0
  baseHeight:
    m_OverrideState: 1
    m_Value: -19.45
  maximumHeight:
    m_OverrideState: 1
    m_Value: 8.78
  albedo:
    m_OverrideState: 1
    m_Value: {r: 1, g: 1, b: 1, a: 1}
    hdr: 0
    showAlpha: 1
    showEyeDropper: 1
  meanFreePath:
    m_OverrideState: 1
    m_Value: 1.1
    min: 1
  enableVolumetricFog:
    m_OverrideState: 1
    m_Value: 1
  anisotropy:
    m_OverrideState: 1
    m_Value: 0
    min: -1
    max: 1
  globalLightProbeDimmer:
    m_OverrideState: 1
    m_Value: 1
    min: 0
    max: 1
  depthExtent:
    m_OverrideState: 1
    m_Value: 64
    min: 0.1
  sliceDistributionUniformity:
    m_OverrideState: 1
    m_Value: 0.75
    min: 0
    max: 1
  filter:
    m_OverrideState: 1
    m_Value: 0
--- !u!114 &1765282802405156314
MonoBehaviour:
  m_ObjectHideFlags: 3
  m_CorrespondingSourceObject: {fileID: 0}
  m_PrefabInstance: {fileID: 0}
  m_PrefabAsset: {fileID: 0}
  m_GameObject: {fileID: 0}
  m_Enabled: 1
  m_EditorHideFlags: 0
  m_Script: {fileID: 11500000, guid: f086a068d4c5889438831b3ae9afc11c, type: 3}
  m_Name: Tonemapping
  m_EditorClassIdentifier: 
  active: 1
  m_AdvancedMode: 0
  mode:
    m_OverrideState: 1
    m_Value: 3
  toeStrength:
    m_OverrideState: 1
    m_Value: 0.465
    min: 0
    max: 1
  toeLength:
    m_OverrideState: 1
    m_Value: 0.465
    min: 0
    max: 1
  shoulderStrength:
    m_OverrideState: 1
    m_Value: 0
    min: 0
    max: 1
  shoulderLength:
    m_OverrideState: 1
    m_Value: 0
    min: 0
  shoulderAngle:
    m_OverrideState: 1
    m_Value: 0
    min: 0
    max: 1
  gamma:
    m_OverrideState: 1
    m_Value: 1
    min: 0.001
  lutTexture:
    m_OverrideState: 0
    m_Value: {fileID: 0}
  lutContribution:
    m_OverrideState: 0
    m_Value: 1
    min: 0
    max: 1
--- !u!114 &2720704536693949561
MonoBehaviour:
  m_ObjectHideFlags: 3
  m_CorrespondingSourceObject: {fileID: 0}
  m_PrefabInstance: {fileID: 0}
  m_PrefabAsset: {fileID: 0}
  m_GameObject: {fileID: 0}
  m_Enabled: 1
  m_EditorHideFlags: 0
  m_Script: {fileID: 11500000, guid: 0d7593b3a9277ac4696b20006c21dde2, type: 3}
  m_Name: VisualEnvironment
  m_EditorClassIdentifier: 
  active: 1
  m_AdvancedMode: 0
  skyType:
    m_OverrideState: 1
    m_Value: 1
  skyAmbientMode:
    m_OverrideState: 1
    m_Value: 1
  fogType:
    m_OverrideState: 1
    m_Value: 0
--- !u!114 &2946094280506618409
MonoBehaviour:
  m_ObjectHideFlags: 3
  m_CorrespondingSourceObject: {fileID: 0}
  m_PrefabInstance: {fileID: 0}
  m_PrefabAsset: {fileID: 0}
  m_GameObject: {fileID: 0}
  m_Enabled: 1
  m_EditorHideFlags: 0
  m_Script: {fileID: 11500000, guid: 0775cbb206825d541bf6c0297ee524ca, type: 3}
  m_Name: SplitToning
  m_EditorClassIdentifier: 
  active: 1
  m_AdvancedMode: 0
  shadows:
    m_OverrideState: 1
    m_Value: {r: 0, g: 0, b: 0, a: 1}
    hdr: 0
    showAlpha: 0
    showEyeDropper: 1
  highlights:
    m_OverrideState: 1
    m_Value: {r: 0.6981132, g: 0.6981132, b: 0.6981132, a: 1}
    hdr: 0
    showAlpha: 0
    showEyeDropper: 1
  balance:
    m_OverrideState: 1
    m_Value: 15.6
    min: -100
    max: 100
--- !u!114 &3697609636440331383
MonoBehaviour:
  m_ObjectHideFlags: 3
  m_CorrespondingSourceObject: {fileID: 0}
  m_PrefabInstance: {fileID: 0}
  m_PrefabAsset: {fileID: 0}
  m_GameObject: {fileID: 0}
  m_Enabled: 1
  m_EditorHideFlags: 0
  m_Script: {fileID: 11500000, guid: 2d08ce26990eb1a4a9177b860541e702, type: 3}
  m_Name: Exposure
  m_EditorClassIdentifier: 
  active: 1
  m_AdvancedMode: 0
  mode:
    m_OverrideState: 1
    m_Value: 0
  meteringMode:
    m_OverrideState: 1
    m_Value: 2
  luminanceSource:
    m_OverrideState: 1
    m_Value: 1
  fixedExposure:
    m_OverrideState: 1
    m_Value: 0
  compensation:
    m_OverrideState: 1
    m_Value: 0
  limitMin:
    m_OverrideState: 1
    m_Value: -10
  limitMax:
    m_OverrideState: 1
    m_Value: 20
  curveMap:
    m_OverrideState: 0
    m_Value:
      serializedVersion: 2
      m_Curve:
      - serializedVersion: 3
        time: -10
        value: -10
        inSlope: 0
        outSlope: 1
        tangentMode: 0
        weightedMode: 0
        inWeight: 0
        outWeight: 0
      - serializedVersion: 3
        time: 20
        value: 20
        inSlope: 1
        outSlope: 0
        tangentMode: 0
        weightedMode: 0
        inWeight: 0
        outWeight: 0
      m_PreInfinity: 2
      m_PostInfinity: 2
      m_RotationOrder: 4
  adaptationMode:
    m_OverrideState: 1
    m_Value: 0
  adaptationSpeedDarkToLight:
    m_OverrideState: 1
    m_Value: 100
    min: 0.001
  adaptationSpeedLightToDark:
    m_OverrideState: 1
    m_Value: 100
    min: 0.001
--- !u!114 &5577995187079869946
MonoBehaviour:
  m_ObjectHideFlags: 3
  m_CorrespondingSourceObject: {fileID: 0}
  m_PrefabInstance: {fileID: 0}
  m_PrefabAsset: {fileID: 0}
  m_GameObject: {fileID: 0}
  m_Enabled: 1
  m_EditorHideFlags: 0
  m_Script: {fileID: 11500000, guid: 7ddcec8a8eb2d684d833ac8f5d26aebd, type: 3}
  m_Name: HDShadowSettings
  m_EditorClassIdentifier: 
  active: 1
  m_AdvancedMode: 0
  maxShadowDistance:
    m_OverrideState: 1
    m_Value: 250
    min: 0
  directionalTransmissionMultiplier:
    m_OverrideState: 0
    m_Value: 1
    min: 0
    max: 1
  cascadeShadowSplitCount:
    m_OverrideState: 0
    m_Value: 4
    min: 1
    max: 4
  cascadeShadowSplit0:
    m_OverrideState: 0
    m_Value: 0.05
  cascadeShadowSplit1:
    m_OverrideState: 0
    m_Value: 0.15
  cascadeShadowSplit2:
    m_OverrideState: 0
    m_Value: 0.3
  cascadeShadowBorder0:
    m_OverrideState: 0
    m_Value: 0
  cascadeShadowBorder1:
    m_OverrideState: 0
    m_Value: 0
  cascadeShadowBorder2:
    m_OverrideState: 0
    m_Value: 0
  cascadeShadowBorder3:
    m_OverrideState: 0
    m_Value: 0
--- !u!114 &8249014946329950988
MonoBehaviour:
  m_ObjectHideFlags: 3
  m_CorrespondingSourceObject: {fileID: 0}
  m_PrefabInstance: {fileID: 0}
  m_PrefabAsset: {fileID: 0}
  m_GameObject: {fileID: 0}
  m_Enabled: 1
  m_EditorHideFlags: 0
  m_Script: {fileID: 11500000, guid: 9008a067f4d626c4d8bc4bc48f04bb89, type: 3}
  m_Name: AmbientOcclusion
  m_EditorClassIdentifier: 
  active: 1
  m_AdvancedMode: 0
  quality:
    m_OverrideState: 1
    m_Value: 1
  rayTracing:
    m_OverrideState: 0
    m_Value: 0
  intensity:
    m_OverrideState: 1
    m_Value: 1.45
    min: 0
    max: 4
  directLightingStrength:
    m_OverrideState: 1
    m_Value: 0.728
    min: 0
    max: 1
  radius:
    m_OverrideState: 1
    m_Value: 1.01
    min: 0.25
    max: 5
  temporalAccumulation:
    m_OverrideState: 1
    m_Value: 1
  ghostingReduction:
    m_OverrideState: 1
    m_Value: 0.454
    min: 0
    max: 1
  blurSharpness:
    m_OverrideState: 0
    m_Value: 0.1
    min: 0
    max: 1
  layerMask:
    m_OverrideState: 0
    m_Value:
      serializedVersion: 2
      m_Bits: 4294967295
  rayLength:
    m_OverrideState: 0
    m_Value: 0.5
    min: 0
    max: 50
  sampleCount:
    m_OverrideState: 0
    m_Value: 4
    min: 1
    max: 64
  denoise:
    m_OverrideState: 0
    m_Value: 0
  denoiserRadius:
    m_OverrideState: 0
    m_Value: 0.5
    min: 0.001
    max: 1
  m_StepCount:
    m_OverrideState: 0
    m_Value: 6
    min: 2
    max: 32
  m_FullResolution:
    m_OverrideState: 0
    m_Value: 0
  m_MaximumRadiusInPixels:
    m_OverrideState: 0
    m_Value: 40
    min: 16
    max: 256
  m_BilateralUpsample:
    m_OverrideState: 0
    m_Value: 1
  m_DirectionCount:
    m_OverrideState: 0
    m_Value: 2
    min: 1
    max: 6
--- !u!114 &9061385107040543674
MonoBehaviour:
  m_ObjectHideFlags: 3
  m_CorrespondingSourceObject: {fileID: 0}
  m_PrefabInstance: {fileID: 0}
  m_PrefabAsset: {fileID: 0}
  m_GameObject: {fileID: 0}
  m_Enabled: 1
  m_EditorHideFlags: 0
  m_Script: {fileID: 11500000, guid: 3df29e7cc05fbec4aa43e06ea875565d, type: 3}
  m_Name: ProceduralSky
  m_EditorClassIdentifier: 
  active: 1
  m_AdvancedMode: 0
  rotation:
    m_OverrideState: 0
    m_Value: 0
    min: 0
    max: 360
  skyIntensityMode:
    m_OverrideState: 0
    m_Value: 0
  exposure:
    m_OverrideState: 1
    m_Value: 0
  multiplier:
    m_OverrideState: 1
    m_Value: 1
    min: 0
  upperHemisphereLuxValue:
    m_OverrideState: 0
    m_Value: 1
    min: 0
  desiredLuxValue:
    m_OverrideState: 0
    m_Value: 20000
  updateMode:
    m_OverrideState: 0
    m_Value: 2
  updatePeriod:
    m_OverrideState: 0
    m_Value: 0
    min: 0
  includeSunInBaking:
    m_OverrideState: 1
    m_Value: 1
  sunSize:
    m_OverrideState: 1
    m_Value: 0.04
    min: 0
    max: 1
  sunSizeConvergence:
    m_OverrideState: 1
    m_Value: 5
    min: 1
    max: 10
  atmosphereThickness:
    m_OverrideState: 1
    m_Value: 1
    min: 0
    max: 5
  skyTint:
    m_OverrideState: 1
    m_Value: {r: 0.5, g: 0.5, b: 0.5, a: 1}
    hdr: 0
    showAlpha: 1
    showEyeDropper: 1
  groundColor:
    m_OverrideState: 1
    m_Value: {r: 0.369, g: 0.349, b: 0.341, a: 1}
    hdr: 0
    showAlpha: 1
    showEyeDropper: 1
  enableSunDisk:
    m_OverrideState: 1
    m_Value: 1
--- !u!114 &9115206795195369271
MonoBehaviour:
  m_ObjectHideFlags: 3
  m_CorrespondingSourceObject: {fileID: 0}
  m_PrefabInstance: {fileID: 0}
  m_PrefabAsset: {fileID: 0}
  m_GameObject: {fileID: 0}
  m_Enabled: 1
  m_EditorHideFlags: 0
  m_Script: {fileID: 11500000, guid: 24f077503be6ae942a1e1245dbd53ea9, type: 3}
  m_Name: Bloom
  m_EditorClassIdentifier: 
  active: 1
  m_AdvancedMode: 0
  quality:
    m_OverrideState: 1
    m_Value: 2
  threshold:
    m_OverrideState: 0
    m_Value: 0
    min: 0
  intensity:
    m_OverrideState: 1
    m_Value: 0.194
    min: 0
    max: 1
  scatter:
    m_OverrideState: 1
    m_Value: 0.587
    min: 0
    max: 1
  tint:
    m_OverrideState: 0
    m_Value: {r: 1, g: 1, b: 1, a: 1}
    hdr: 0
    showAlpha: 0
    showEyeDropper: 1
  dirtTexture:
    m_OverrideState: 0
    m_Value: {fileID: 0}
  dirtIntensity:
    m_OverrideState: 0
    m_Value: 0
    min: 0
  anamorphic:
    m_OverrideState: 0
    m_Value: 1
  m_Resolution:
    m_OverrideState: 0
    m_Value: 2
  m_HighQualityFiltering:
    m_OverrideState: 0
    m_Value: 1
