%YAML 1.1
%TAG !u! tag:unity3d.com,2011:
--- !u!114 &-6012348628759433332
MonoBehaviour:
  m_ObjectHideFlags: 11
  m_CorrespondingSourceObject: {fileID: 0}
  m_PrefabInstance: {fileID: 0}
  m_PrefabAsset: {fileID: 0}
  m_GameObject: {fileID: 0}
  m_Enabled: 1
  m_EditorHideFlags: 0
  m_Script: {fileID: 11500000, guid: d0353a89b1f911e48b9e16bdc9f2e058, type: 3}
  m_Name: 
  m_EditorClassIdentifier: 
  version: 1
--- !u!21 &2100000
Material:
  serializedVersion: 6
  m_ObjectHideFlags: 0
  m_CorrespondingSourceObject: {fileID: 0}
  m_PrefabInstance: {fileID: 0}
  m_PrefabAsset: {fileID: 0}
  m_Name: SURGE_MAT
  m_Shader: {fileID: -6465566751694194690, guid: e431a8e636d0c074697fb62c908d1649,
    type: 3}
  m_ShaderKeywords: 
  m_LightmapFlags: 4
  m_EnableInstancingVariants: 0
  m_DoubleSidedGI: 0
  m_CustomRenderQueue: -1
  stringTagMap:
    MotionVector: User
  disabledShaderPasses:
  - MOTIONVECTORS
  m_SavedProperties:
    serializedVersion: 3
    m_TexEnvs:
    - Texture2D_597470CE:
        m_Texture: {fileID: 2800000, guid: 1cfe7386c50f635498f79db1b89bc572, type: 3}
        m_Scale: {x: 1, y: 1}
        m_Offset: {x: 0, y: 0}
    - _AO:
        m_Texture: {fileID: 0}
        m_Scale: {x: 1, y: 1}
        m_Offset: {x: 0, y: 0}
    - _BaseMap:
        m_Texture: {fileID: 0}
        m_Scale: {x: 1, y: 1}
        m_Offset: {x: 0, y: 0}
    - _BumpMap:
        m_Texture: {fileID: 0}
        m_Scale: {x: 1, y: 1}
        m_Offset: {x: 0, y: 0}
    - _EmissMap:
        m_Texture: {fileID: 2800000, guid: 80fcd0b50e3f77f468009e90451ec970, type: 3}
        m_Scale: {x: 1, y: 1}
        m_Offset: {x: 0, y: 0}
    - _EmissionMap:
        m_Texture: {fileID: 0}
        m_Scale: {x: 1, y: 1}
        m_Offset: {x: 0, y: 0}
    - _MainTex:
        m_Texture: {fileID: 2800000, guid: 3f472f96c3df78a44b1db294c09c1689, type: 3}
        m_Scale: {x: 1, y: 1}
        m_Offset: {x: 0, y: 0}
    - _MetMap:
        m_Texture: {fileID: 2800000, guid: 1cfe7386c50f635498f79db1b89bc572, type: 3}
        m_Scale: {x: 1, y: 1}
        m_Offset: {x: 0, y: 0}
    - _MetallicGlossMap:
        m_Texture: {fileID: 0}
        m_Scale: {x: 1, y: 1}
        m_Offset: {x: 0, y: 0}
    - _Normal:
        m_Texture: {fileID: 2800000, guid: f7e74fc865538134c964ff0e3c8ef681, type: 3}
        m_Scale: {x: 1, y: 1}
        m_Offset: {x: 0, y: 0}
    - _OcclusionMap:
        m_Texture: {fileID: 0}
        m_Scale: {x: 1, y: 1}
        m_Offset: {x: 0, y: 0}
    - _SpecGlossMap:
        m_Texture: {fileID: 0}
        m_Scale: {x: 1, y: 1}
        m_Offset: {x: 0, y: 0}
    m_Floats:
    - _AOValue: 0.35
    - _AlphaClip: 0
    - _Blend: 0
    - _BumpScale: 1
    - _CrossValue: 1
    - _Cull: 2
    - _Cutoff: 0.5
    - _DstBlend: 0
    - _ElectricityAmount: 50
    - _ElectricityOpacity: 1.95
    - _ElectricityScale: 40
    - _ElectricityThickness: 0.5
    - _Electrified: 0
    - _Emission: 1
    - _EnvironmentReflections: 1
    - _GlossMapScale: 0
    - _Glossiness: 0
    - _GlossyReflections: 0
    - _MetVal: 1
    - _Metallic: 0
    - _NormalValue: 1
    - _OcclusionStrength: 1
    - _QueueOffset: 0
    - _ReceiveShadows: 1
    - _Smooth: 0.4
    - _Smoothness: 0.5
    - _SmoothnessTextureChannel: 0
    - _SpecularHighlights: 1
    - _SrcBlend: 1
    - _Surface: 0
    - _WorkflowMode: 1
    - _ZWrite: 1
    m_Colors:
    - _BaseColor: {r: 0.5, g: 0.5, b: 0.5, a: 1}
    - _Color: {r: 1, g: 1, b: 1, a: 1}
    - _CrossVector: {r: 0, g: 2, b: 0, a: 0}
    - _ElectricityColor: {r: 4.237095, g: 1.2015461, b: 0, a: 1}
    - _ElectricitySpeed: {r: -0.1, g: 0.1, b: 0, a: 0}
    - _EmissColor: {r: 33.896748, g: 10.825663, b: 0, a: 0}
    - _EmissionColor: {r: 0, g: 0, b: 0, a: 1}
    - _InnerColor: {r: 2.9960785, g: 0.9254902, b: 0, a: 0}
    - _NoiseSpeed: {r: 0.1, g: -0.3, b: 0, a: 0}
    - _PlaneVector: {r: 0, g: 1, b: 0, a: 0}
    - _SpecColor: {r: 0.19999996, g: 0.19999996, b: 0.19999996, a: 1}
