%YAML 1.1
%TAG !u! tag:unity3d.com,2011:
--- !u!114 &11400000
MonoBehaviour:
  m_ObjectHideFlags: 0
  m_CorrespondingSourceObject: {fileID: 0}
  m_PrefabInstance: {fileID: 0}
  m_PrefabAsset: {fileID: 0}
  m_GameObject: {fileID: 0}
  m_Enabled: 1
  m_EditorHideFlags: 0
  m_Script: {fileID: 11500000, guid: 9f3758f8f58fdef43803eb9be1df0608, type: 3}
  m_Name: PhotonServerSettings
  m_EditorClassIdentifier: 
  AppSettings:
    AppIdRealtime: 3ebe1def-578c-4faa-9928-4ee047225727
    AppIdChat: 
    AppIdVoice: 
    AppVersion: 
    UseNameServer: 1
    FixedRegion: 
    Server: 
    Port: 0
    Protocol: 0
    EnableLobbyStatistics: 0
    NetworkLogging: 1
  PunLogging: 0
  EnableSupportLogger: 0
  RunInBackground: 1
  StartInOfflineMode: 0
  RpcList:
  - AddForce
  - AddToFeed
  - ClickRpc
  - DestroyRpc
  - DestroySpaceship
  - Electrify
  - Fire
  - RespawnSpaceship
  - RPC_ApplyStatusEffect
  - RPC_AssignHealthPack
  - RPC_CreatePlayer
  - RPC_DisableArrow
  - RPC_DisableBow
  - RPC_DisableKatana
  - RPC_EnableArrow
  - RPC_EnableBow
  - RPC_EnableKatana
  - RPC_GainXP
  - RPC_GetAbility
  - RPC_LerpSphere
  - RPC_LoadedGameScene
  - RPC_SetAbilities
  - RPC_SetKill
  - RPC_SetMyName
  - RPC_SetMyTeam
  - RPC_SetParent
  - RPC_TakeDamage
  - RPC_TurnOnSelectedWeapon
  - RPC_UpdateDeathStats
  - RPC_UpdateKillStats
  - SpawnTrail
  DisableAutoOpenWizard: 1
  ShowSettings: 0
