%YAML 1.1
%TAG !u! tag:unity3d.com,2011:
--- !u!114 &-5585911139656118577
MonoBehaviour:
  m_ObjectHideFlags: 0
  m_CorrespondingSourceObject: {fileID: 0}
  m_PrefabInstance: {fileID: 0}
  m_PrefabAsset: {fileID: 0}
  m_GameObject: {fileID: 0}
  m_Enabled: 1
  m_EditorHideFlags: 0
  m_Script: {fileID: 11500000, guid: 6b3d386ba5cd94485973aee1479b272e, type: 3}
  m_Name: WeponRenderOpaque
  m_EditorClassIdentifier: 
  settings:
    passTag: WeponRenderOpaque
    Event: 0
    filterSettings:
      RenderQueueType: 0
      LayerMask:
        serializedVersion: 2
        m_Bits: 256
      PassNames: []
    overrideMaterial: {fileID: 0}
    overrideMaterialPassIndex: 0
    overrideDepthState: 0
    depthCompareFunction: 8
    enableWrite: 1
    stencilSettings:
      overrideStencilState: 0
      stencilReference: 15
      stencilCompareFunction: 5
      passOperation: 0
      failOperation: 0
      zFailOperation: 0
    cameraSettings:
      overrideCamera: 1
      restoreCamera: 0
      offset: {x: 0, y: 0, z: -0.4, w: 1}
      cameraFieldOfView: 40
--- !u!114 &11400000
MonoBehaviour:
  m_ObjectHideFlags: 0
  m_CorrespondingSourceObject: {fileID: 0}
  m_PrefabInstance: {fileID: 0}
  m_PrefabAsset: {fileID: 0}
  m_GameObject: {fileID: 0}
  m_Enabled: 1
  m_EditorHideFlags: 0
  m_Script: {fileID: 11500000, guid: de640fe3d0db1804a85f9fc8f5cadab6, type: 3}
  m_Name: FPSCamera
  m_EditorClassIdentifier: 
  m_RendererFeatures:
  - {fileID: -5585911139656118577}
  - {fileID: 7822481448430145159}
  shaders:
    blitPS: {fileID: 4800000, guid: c17132b1f77d20942aa75f8429c0f8bc, type: 3}
    copyDepthPS: {fileID: 4800000, guid: d6dae50ee9e1bfa4db75f19f99355220, type: 3}
    screenSpaceShadowPS: {fileID: 4800000, guid: 0f854b35a0cf61a429bd5dcfea30eddd,
      type: 3}
    samplingPS: {fileID: 4800000, guid: 04c410c9937594faa893a11dceb85f7e, type: 3}
  m_OpaqueLayerMask:
    serializedVersion: 2
    m_Bits: 89655
  m_TransparentLayerMask:
    serializedVersion: 2
    m_Bits: 89655
  m_DefaultStencilState:
    overrideStencilState: 0
    stencilReference: 0
    stencilCompareFunction: 8
    passOperation: 0
    failOperation: 0
    zFailOperation: 0
--- !u!114 &7822481448430145159
MonoBehaviour:
  m_ObjectHideFlags: 0
  m_CorrespondingSourceObject: {fileID: 0}
  m_PrefabInstance: {fileID: 0}
  m_PrefabAsset: {fileID: 0}
  m_GameObject: {fileID: 0}
  m_Enabled: 1
  m_EditorHideFlags: 0
  m_Script: {fileID: 11500000, guid: 6b3d386ba5cd94485973aee1479b272e, type: 3}
  m_Name: WeaponRenderTransparent
  m_EditorClassIdentifier: 
  settings:
    passTag: WeaponRenderTransparent
    Event: 500
    filterSettings:
      RenderQueueType: 1
      LayerMask:
        serializedVersion: 2
        m_Bits: 256
      PassNames: []
    overrideMaterial: {fileID: 0}
    overrideMaterialPassIndex: 0
    overrideDepthState: 0
    depthCompareFunction: 4
    enableWrite: 1
    stencilSettings:
      overrideStencilState: 0
      stencilReference: 0
      stencilCompareFunction: 8
      passOperation: 0
      failOperation: 0
      zFailOperation: 0
    cameraSettings:
      overrideCamera: 1
      restoreCamera: 0
      offset: {x: 0, y: 0, z: -0.4, w: 1}
      cameraFieldOfView: 40
