%YAML 1.1
%TAG !u! tag:unity3d.com,2011:
--- !u!1045 &1
EditorBuildSettings:
  m_ObjectHideFlags: 0
  serializedVersion: 2
  m_Scenes:
  - enabled: 1
    path: Assets/Scenes/Menu.unity
    guid: 43add055426c05644907375a02c4de65
  - enabled: 0
    path: Assets/Scenes/Ninja.unity
    guid: 9aaa41856d511d94a963e2b4757de8e5
  - enabled: 0
    path: 
    guid: 00000000000000000000000000000000
  - enabled: 0
    path: Assets/Scenes/Arena.unity
    guid: 9fc0d4010bbf28b4594072e72b8655ab
  - enabled: 1
    path: Assets/Scenes/NewArena.unity
    guid: 88fe410be85cdbe489182084bca93d54
  m_configObjects: {}
