%YAML 1.1
%TAG !u! tag:unity3d.com,2011:
--- !u!78 &1
TagManager:
  serializedVersion: 2
  tags:
  - WeaponCamera
  - Fire
  - Bullet
  - Enemy
  - Ally
  - HolderKatana
  - Katana
  - ToBeSet
  - Canvas
  - ReadyTimer
  - NinjaBody
  - NinjaHair
  - NinjaArms
  layers:
  - Default
  - TransparentFX
  - Ignore Raycast
  - 
  - Water
  - UI
  - 
  - 
  - Weapon
  - Ground
  - InvizWall
  - LocalPlayer
  - Player
  - PostProcess
  - Projectile
  - Head
  - Particles
  - SpawnPoint
  - 
  - 
  - 
  - 
  - 
  - 
  - 
  - 
  - 
  - 
  - 
  - 
  - 
  - 
  m_SortingLayers:
  - name: Default
    uniqueID: 0
    locked: 0
